[
    {"task":"Create project", "project":"Example Project", "deadline":"10/21/2013", "done":true},
    {"task":"I'm awesome", "project":"Example Project", "deadline":"10/21/2013", "done":true},
    {"task":"Read something about REST", "project":"TODO list", "deadline":"10/23/2013", "done":false}
]